<?xml version="1.0" encoding="utf-8"?>
<!-- Generator: Adobe Illustrator 25.0.0, SVG Export Plug-In . SVG Version: 6.00 Build 0)  -->
<svg version="1.1" id="Vrstva_1" xmlns="http://www.w3.org/2000/svg" xmlns:xlink="http://www.w3.org/1999/xlink" x="0px" y="0px"
	 width="40px" height="40px" viewBox="0 0 40 40" style="enable-background:new 0 0 40 40;" xml:space="preserve">
<style type="text/css">
	.st0{fill:#38296C;stroke:#FFFFFF;stroke-miterlimit:10;}
</style>
<path class="st0" d="M20,0.6c-9.3,0-16.8,7.5-16.8,16.8s16.8,22,16.8,22s16.8-12.8,16.8-22S29.3,0.6,20,0.6z M20,23.6
	c-3.5,0-6.3-2.8-6.3-6.3s2.8-6.3,6.3-6.3s6.3,2.8,6.3,6.3S23.5,23.6,20,23.6z"/>
</svg>
